<?xml version="1.0" encoding="utf-8"?>
<!-- Generator: Adobe Illustrator 20.1.0, SVG Export Plug-In . SVG Version: 6.00 Build 0)  -->
<svg version="1.1" id="Слой_1" xmlns="http://www.w3.org/2000/svg" xmlns:xlink="http://www.w3.org/1999/xlink" x="0px" y="0px"
	 viewBox="0 0 512 512" style="enable-background:new 0 0 512 512;" xml:space="preserve">
<path d="M256.5,219.5c72.7,0,145.4,0,218.1,0c21.8,0,38.2,16.9,37.4,38.1c-0.7,18.4-15.9,33.9-34.4,34.9c-1.3,0.1-2.7,0.1-4,0.1
	c-145,0-290.1,0-435.1,0c-21.3,0-37.7-15-38.3-35c-0.6-20.9,15.4-37.8,36.4-38c22.5-0.2,44.9,0,67.4,0
	C154.8,219.5,205.6,219.5,256.5,219.5z"/>
<path d="M256.1,438.8c-72.9,0-145.8,0.1-218.7,0c-15.5,0-27.1-7.2-33.7-21.2c-6.5-13.9-4.4-27.2,5.3-38.9
	c7.3-8.9,17.1-12.9,28.7-12.9c52.3,0,104.7,0,157,0c93.3,0,186.5,0,279.8,0c20.9,0,37.2,15.7,37.5,35.8
	c0.3,20.6-15.8,37.2-36.6,37.2c-39.4,0.1-78.8,0-118.2,0C323.5,438.8,289.8,438.8,256.1,438.8z"/>
<path d="M256.5,73.2c72.7,0,145.4,0,218.1,0c21.8,0,38.2,16.9,37.4,38.2c-0.7,18.4-15.9,33.9-34.4,34.9c-1.3,0.1-2.7,0.1-4,0.1
	c-144.8,0-289.7,0-434.5,0c-18.7,0-33.4-10.6-37.6-27.2c-6-23.3,11-45.7,35.2-45.9c23.6-0.2,47.2-0.1,70.8-0.1
	C157.1,73.2,206.8,73.2,256.5,73.2z"/>
</svg>
