<svg xmlns="http://www.w3.org/2000/svg" xmlns:xlink="http://www.w3.org/1999/xlink" version="1.1" style="enable-background:new 0 0 512 512;" xml:space="preserve" width="512" height="512"><rect id="backgroundrect" width="100%" height="100%" x="0" y="0" fill="none" stroke="none"/>
<style type="text/css">
	.st0{fill:#FFFFFF;}
</style>



<g class="currentLayer" style=""><title>Layer 1</title><path d="M267.9,6.6c7.6,2.2,15.3,4,22.6,6.8c44.6,17.4,70.3,64.2,61.5,111.3c-7.3,39.1-26.2,71.1-58.5,94.6  c-24.3,17.7-51.2,17.3-75.4-0.5c-42.4-31.2-62.1-73.2-59.2-125.7c2-37.3,33.8-73.2,73.7-83.6c3.8-1,7.6-2,11.4-3  C252,6.6,260,6.6,267.9,6.6z M257.2,37.3c-3,0.2-6,0.4-8.9,0.6c-29.6,2.5-52.7,22.4-57.4,50.9c-6.7,40.4,7.3,74,37.2,100.9  c17.2,15.4,38.6,15,56.3-0.1c23.1-19.7,33.9-45.8,38.1-75.3C328.3,73,298.7,37.7,257.2,37.3z" id="svg_1" class="selected" fill-opacity="1" fill="#4c4c4c"/><path class="st0 selected" d="M477,502.4c6.3-2.5,10-7.2,11.9-13.4c0,4.5,0,9,0,13.4C485,502.4,481,502.4,477,502.4z" id="svg_2" fill-opacity="1" fill="#4c4c4c"/><path d="M486.3,455.2c-11.1-103-116.9-214.4-250.9-199.8C133.2,266.6,50.2,338.8,28.9,439c-2.4,11.1-3.9,22.3-5.9,33.5  c0,6,0,11.9,0,17.9v2.5c0,5.2,4.2,9.5,9.5,9.5H35c147.3,0,294.7,0,442,0c6.3-2.5,10-7.2,11.9-13.4c0-6,0-11.9,0-17.9  C488.1,465.8,486.9,460.5,486.3,455.2z M55.4,470.5c4.9-60.5,30-110.1,78.8-145.2c69.3-49.8,144.5-54.2,219.6-15.2  c63.3,32.9,95.7,88.7,103.1,160.4C322.5,470.5,189.7,470.5,55.4,470.5z" id="svg_3" class="selected" fill-opacity="1" fill="#4c4c4c"/></g></svg>