<?xml version="1.0" encoding="utf-8"?>
<!-- Generator: Adobe Illustrator 20.1.0, SVG Export Plug-In . SVG Version: 6.00 Build 0)  -->
<svg version="1.1" id="Слой_1" xmlns="http://www.w3.org/2000/svg" xmlns:xlink="http://www.w3.org/1999/xlink" x="0px" y="0px"
	 viewBox="0 0 512 512" style="enable-background:new 0 0 512 512;" xml:space="preserve">
<path d="M288.1,343.4c-82.6,53-186.7,30.6-242.6-42.4C-7.2,232.3-2,131.3,58.5,68.1C121.6,2.3,220.9-7,295.1,45.9
	c75.3,53.6,101.5,164.8,43.6,248.3c50.6,47.7,101.1,95.4,151.7,143.1c16.2,15.3,16.3,33.4,1.3,49.9c-10,10.9-21.5,16-35.8,11.4
	c-5.5-1.8-10.7-5.5-15-9.5c-30.4-28.4-60.6-57-90.8-85.6c-18.2-17.2-36.5-34.4-54.7-51.7C292.8,349.3,290.7,346.4,288.1,343.4z
	 M189.5,324.8c72.9,0,132.5-59.5,132.6-132.5c0.2-73-59.5-132.6-132.9-132.7C117,59.4,57,119.1,56.9,191.4
	C56.8,265.1,116.1,324.7,189.5,324.8z"/>
</svg>
