<?xml version="1.0" encoding="utf-8"?>
<!-- Generator: Adobe Illustrator 20.1.0, SVG Export Plug-In . SVG Version: 6.00 Build 0)  -->
<svg version="1.1" id="Слой_1" xmlns="http://www.w3.org/2000/svg" xmlns:xlink="http://www.w3.org/1999/xlink" x="0px" y="0px"
	 viewBox="0 0 512 512" style="enable-background:new 0 0 512 512;" xml:space="preserve">
<path d="M350.4,189.3c-1.3,0.7-2.6,1.3-3.8,2.1c-57,35.6-114,71.3-171.1,106.8c-2.8,1.8-3.5,3.6-3,6.8c4.4,24.5,8.7,49.1,13,73.7
	c0.8,4.5,1.6,8.9,2.3,13.4c1,6.6-1.4,11.3-6.5,13.2c-5.3,1.9-10.1,0.1-13.6-5.6c-17.4-27.9-34.9-55.9-52.2-83.9
	c-2-3.2-4.4-5-7.9-6.1c-26.1-8.2-52.3-16.5-78.3-25c-18-5.9-25.1-26.4-13.7-40c2.4-2.8,5.8-5.3,9.2-6.7
	c106.4-42.6,212.8-85,319.2-127.6c46.4-18.6,92.7-37.6,139-56.4c0.9-0.4,1.8-0.7,2.7-1.1c4.4-2,8.6-2.1,12.4,1.1
	c3.9,3.3,4.2,7.6,3.4,12.4c-4.6,25.8-9,51.6-13.5,77.3c-5.1,29.3-10.1,58.6-15.2,88c-6.4,37.1-12.7,74.1-19.1,111.2
	c-6.4,37.1-13,74.1-19.1,111.2c-1.9,11.5-5.9,21.1-15.9,27.6c-14.4,9.4-31.8,8.3-44.8-2.7c-31.6-26.5-63.2-52.9-94.8-79.4
	c-2.6-2.2-4-1.6-6.1,0.4c-20.5,19.2-41.1,38.3-61.7,57.5c-1.2,1.1-2.4,2.3-3.7,3.4c-3.6,3-8.5,3.7-12.3,1.6c-4.1-2.3-6.1-6-5.6-10.7
	c2.8-27.3,5.7-54.5,8.6-81.8c1.2-11,2.5-21.9,3.4-32.9c0.4-4.4,2-7.8,5.2-10.8c40.6-38.3,81.1-76.7,121.7-115.1
	c6.5-6.2,13-12.3,19.5-18.5c1-0.9,1.8-1.9,2.7-2.9C350.7,189.7,350.5,189.5,350.4,189.3z M214.2,424c0.3,0.2,0.7,0.4,1,0.5
	c1-0.8,2.1-1.6,3-2.5c15-14,30.1-28,45.1-42c11-10.2,13.1-10.3,24.6-0.7c32.5,27.1,64.9,54.3,97.4,81.4c2.6,2.2,5.2,4.5,8.2,6.2
	c7.5,4.3,14.6,1.7,17.8-6.3c0.8-1.9,1.2-4,1.5-6c3.2-18.6,6.4-37.2,9.6-55.8c5.7-33.1,11.5-66.2,17.2-99.3
	c5.3-30.8,10.6-61.6,15.9-92.4c6.7-38.8,13.5-77.6,20.2-116.4c0.6-3.4,1-6.8,1.5-10.9c-2.2,0.8-3.5,1.2-4.7,1.7
	c-10.7,4.4-21.4,8.7-32.1,13.1c-66.9,27.1-133.7,54.3-200.7,81.2c-67,26.9-134.1,53.3-201.1,80c-2.6,1-7,0.6-7,4.4
	c0.1,3.9,4.4,4,7.3,5c27.3,8.8,54.5,17.6,81.8,26.2c4.2,1.3,7.2,3.6,9.5,7.3c7.7,12.6,15.5,25.1,23.3,37.6c0.7,1.2,1.6,2.3,2.4,3.5
	c0.7-1.3,0.7-2.2,0.6-3.1c-2.1-12.1-4.3-24.1-6.3-36.2c-1.5-9.1-0.3-11.4,7.5-16.3c74-46.2,147.9-92.4,221.9-138.7
	c18.2-11.4,36.4-22.8,54.7-34.2c5.4-3.3,11-2.5,14.5,1.9c3.6,4.4,3.2,10.4-1.2,14.9c-2,2.1-4.2,3.9-6.3,5.9
	c-71.7,67.8-143.4,135.6-215,203.6c-2,1.9-3.4,5-3.7,7.8c-1.9,15.3-3.4,30.7-4.9,46C216.4,402.4,215.3,413.2,214.2,424z"/>
</svg>
