<?xml version="1.0" encoding="UTF-8"?>
<svg width="512" height="512" xmlns="http://www.w3.org/2000/svg" xmlns:svg="http://www.w3.org/2000/svg">
 <g>
  <title>Layer 1</title>
  <path d="m253.5,442.6c-35,-1.2 -73.9,-1.9 -112.6,-4.2c-22.2,-1.3 -44.4,-5 -66.5,-8c-25.8,-3.4 -42,-19.1 -52.1,-42.2c-9.3,-21.3 -14.3,-43.8 -17.5,-66.7c-3.5,-24.7 -5.6,-49.5 -4.5,-74.4c1.6,-36.9 5.5,-73.5 16.9,-108.8c3.7,-11.5 8.6,-22.6 15.5,-32.6c7.8,-11.4 18.4,-18.7 31.7,-22.3c24.3,-6.5 49.2,-8.7 74.2,-10.4c67.8,-4.5 135.8,-4.2 203.7,-2c30.6,1 61.3,2.9 91.5,8.3c9.9,1.8 19.8,4.4 29.3,7.6c16.8,5.6 25.9,19 32.8,34.3c9.3,20.9 13.6,43.1 16.7,65.5c4.3,30.9 5.4,61.9 4.2,93c-1.3,32.2 -4.5,64.2 -14.6,95.1c-1.9,5.9 -4.4,11.6 -6.9,17.2c-9.2,21 -25.5,32.6 -47.8,37.3c-29.6,6.2 -59.5,8.8 -89.6,10.1c-33.4,1.5 -67,2.1 -104.4,3.2zm-1.1,-31.9c41.2,-1.3 77.6,-2 114,-3.6c25.3,-1.1 50.4,-3.7 75.3,-8.9c12.6,-2.7 21,-9.4 25.7,-21.2c0.7,-1.8 1.6,-3.6 2.3,-5.5c8,-21.2 11.5,-43.4 13.5,-65.9c4,-44 2.9,-87.9 -5.1,-131.5c-2.8,-15.2 -6.5,-30.2 -13.4,-44.2c-3.7,-7.6 -9.2,-13.2 -17.7,-14.9c-13.5,-2.6 -27,-6 -40.6,-7.2c-28.8,-2.5 -57.8,-4.6 -86.7,-5.4c-62.6,-1.8 -125.2,-1.7 -187.6,3.2c-19.1,1.5 -38.1,5.2 -57.1,8.2c-8.8,1.4 -15.1,6.8 -18.9,14.7c-3.1,6.4 -6.2,13 -8.4,19.7c-9.1,27.3 -12.6,55.6 -14.7,84.1c-2.6,34.4 0,68.6 6.4,102.4c2.8,14.7 6.9,28.9 13.1,42.6c5.5,12.1 13.9,19.8 27.4,21.6c17.7,2.3 35.3,5.8 53,6.8c41.3,2.4 82.8,3.5 119.5,5z" id="svg_1" fill="#94c9af" stroke="#94c9af"/>
  <path d="m194.2,256.5c0,-29.4 0,-58.8 0,-88.2c0,-10.8 7.9,-17.9 18.2,-16.5c2.4,0.3 4.9,1.4 7,2.7c47.8,29.3 95.7,58.6 143.4,88c11.5,7.1 11.7,21.2 0.2,28.2c-47.8,29.4 -95.6,58.7 -143.4,88.1c-5.8,3.5 -11.6,4.3 -17.5,1c-6,-3.4 -8.1,-8.8 -8.1,-15.6c0.3,-29.2 0.2,-58.4 0.2,-87.7c0,0 0,0 0,0zm130.4,0.3c-33.2,-20.5 -65.4,-40.4 -98.2,-60.7c0,40.9 0,80.7 0,121.5c33,-20.4 65.1,-40.4 98.2,-60.8z" id="svg_2" stroke="#94c9af" fill="#94c9af"/>
 </g>
</svg>